[
  {
    "service_desk_identifier": "01",
    "customer_type": "gpd",
    "customer_sub_type": "major/minor",
    "initial": 30,
    "subsequent": 45
  },
  {
    "service_desk_identifier": "02",
    "customer_type": "premium customers",
    "customer_sub_type": "major/minor",
    "initial": 45,
    "subsequent": 60
  },
  {
    "service_desk_identifier": "03",
    "customer_type": "international desk",
    "customer_sub_type": "major/minor",
    "initial": 45,
    "subsequent": 60
  },
  {
    "service_desk_identifier": "04",
    "customer_type": "international desk",
    "customer_sub_type": "major/minor",
    "initial": 45,
    "subsequent": 60
  },
  {
    "service_desk_identifier": "05",
    "customer_type": "international desk",
    "customer_sub_type": "major/minor",
    "initial": 45,
    "subsequent": 60
  },
  {
    "service_desk_identifier": "06",
    "customer_type": "priority customers",
    "customer_sub_type": "major/minor",
    "initial": 45,
    "subsequent": 90
  }
]